{
  "project_info": {
    "project_number": "338213227568",
    "project_id": "study-app-4e18a",
    "storage_bucket": "study-app-4e18a.appspot.com"
  },
  "client": [
    {
      "client_info": {
        "mobilesdk_app_id": "1:338213227568:android:a37c8e0b0cc9530ebab1f5",
        "android_client_info": {
          "package_name": "com.example.flutter_study_app"
        }
      },
      "oauth_client": [
        {
          "client_id": "338213227568-75pr4sv9scl8lap2v4geev81lh57eine.apps.googleusercontent.com",
          "client_type": 3
        }
      ],
      "api_key": [
        {
          "current_key": "AIzaSyAg4OdqPl5GMmvsEocIq_n7OJAEEFPlzp8"
        }
      ],
      "services": {
        "appinvite_service": {
          "other_platform_oauth_client": [
            {
              "client_id": "338213227568-75pr4sv9scl8lap2v4geev81lh57eine.apps.googleusercontent.com",
              "client_type": 3
            }
          ]
        }
      }
    }
  ],
  "configuration_version": "1"
}